<?xml version="1.0" encoding="UTF-8"?>
<svg xmlns="http://www.w3.org/2000/svg" xmlns:xlink="http://www.w3.org/1999/xlink" width="209.586pt" height="196.894pt" viewBox="0 0 209.586 196.894" version="1.1">
<defs>
<g>
<symbol overflow="visible" id="glyph0-0">
<path style="stroke:none;" d="M 1.21875 -1.921875 L 2.109375 -1.921875 L 2.109375 -2.140625 L 1.21875 -2.140625 L 1.21875 -3.0625 L 1.015625 -3.0625 C 1.015625 -2.59375 0.765625 -2.109375 0.25 -2.09375 L 0.25 -1.921875 L 0.78125 -1.921875 L 0.78125 -0.625 C 0.78125 -0.0625 1.25 0.0625 1.5625 0.0625 C 1.9375 0.0625 2.21875 -0.21875 2.21875 -0.625 L 2.21875 -0.90625 L 2 -0.90625 L 2 -0.640625 C 2 -0.265625 1.78125 -0.125 1.609375 -0.125 C 1.21875 -0.125 1.21875 -0.515625 1.21875 -0.625 Z M 1.21875 -1.921875 "/>
</symbol>
<symbol overflow="visible" id="glyph0-1">
<path style="stroke:none;" d="M 3.0625 -1.0625 C 3.0625 -1.6875 2.484375 -2.234375 1.6875 -2.234375 C 0.90625 -2.234375 0.328125 -1.6875 0.328125 -1.0625 C 0.328125 -0.46875 0.921875 0.0625 1.6875 0.0625 C 2.484375 0.0625 3.0625 -0.46875 3.0625 -1.0625 Z M 1.6875 -0.125 C 0.828125 -0.125 0.828125 -0.875 0.828125 -1.109375 C 0.828125 -1.328125 0.828125 -2.0625 1.6875 -2.0625 C 2.5625 -2.0625 2.5625 -1.328125 2.5625 -1.109375 C 2.5625 -0.875 2.5625 -0.125 1.6875 -0.125 Z M 1.6875 -0.125 "/>
</symbol>
<symbol overflow="visible" id="glyph0-2">
<path style="stroke:none;" d="M 1.65625 0.75 L 1.5625 0.75 C 1.234375 0.75 1.234375 0.703125 1.234375 0.546875 L 1.234375 -0.234375 C 1.453125 -0.046875 1.71875 0.0625 2 0.0625 C 2.765625 0.0625 3.375 -0.453125 3.375 -1.078125 C 3.375 -1.671875 2.828125 -2.203125 2.09375 -2.203125 C 1.6875 -2.203125 1.390625 -2.0625 1.21875 -1.921875 L 1.21875 -2.203125 L 0.375 -2.140625 L 0.375 -1.921875 C 0.734375 -1.921875 0.796875 -1.921875 0.796875 -1.71875 L 0.796875 0.546875 C 0.796875 0.703125 0.796875 0.75 0.46875 0.75 L 0.375 0.75 L 0.375 0.96875 C 0.59375 0.953125 0.796875 0.953125 1.015625 0.953125 C 1.21875 0.953125 1.4375 0.953125 1.65625 0.96875 Z M 1.234375 -1.65625 C 1.453125 -1.953125 1.828125 -2.03125 2.03125 -2.03125 C 2.515625 -2.03125 2.875 -1.578125 2.875 -1.078125 C 2.875 -0.53125 2.46875 -0.109375 1.96875 -0.109375 C 1.75 -0.109375 1.484375 -0.203125 1.3125 -0.421875 C 1.234375 -0.515625 1.234375 -0.515625 1.234375 -0.625 Z M 1.234375 -1.65625 "/>
</symbol>
<symbol overflow="visible" id="glyph0-3">
<path style="stroke:none;" d="M 2.609375 -1.484375 C 2.609375 -1.953125 2.109375 -2.234375 1.484375 -2.234375 C 1.1875 -2.234375 0.609375 -2.21875 0.609375 -1.796875 C 0.609375 -1.609375 0.75 -1.53125 0.875 -1.53125 C 1 -1.53125 1.125 -1.625 1.125 -1.796875 C 1.125 -1.90625 1.0625 -1.984375 1.015625 -2.015625 C 1.1875 -2.0625 1.421875 -2.0625 1.46875 -2.0625 C 1.90625 -2.0625 2.15625 -1.828125 2.15625 -1.46875 L 2.15625 -1.34375 C 1.6875 -1.328125 1.40625 -1.3125 1.03125 -1.171875 C 0.703125 -1.0625 0.40625 -0.84375 0.40625 -0.515625 C 0.40625 -0.0625 0.984375 0.0625 1.390625 0.0625 C 1.765625 0.0625 2.0625 -0.09375 2.21875 -0.359375 C 2.25 -0.171875 2.359375 0.03125 2.609375 0.03125 C 2.640625 0.03125 3.21875 0.03125 3.21875 -0.453125 L 3.21875 -0.71875 L 3 -0.71875 L 3 -0.453125 C 3 -0.40625 3 -0.1875 2.8125 -0.1875 C 2.609375 -0.1875 2.609375 -0.40625 2.609375 -0.453125 Z M 2.15625 -0.703125 C 2.15625 -0.15625 1.5625 -0.109375 1.4375 -0.109375 C 1.140625 -0.109375 0.875 -0.265625 0.875 -0.515625 C 0.875 -0.6875 0.96875 -1.140625 2.15625 -1.203125 Z M 2.15625 -0.703125 "/>
</symbol>
<symbol overflow="visible" id="glyph0-4">
<path style="stroke:none;" d="M 2.984375 -1.5 C 2.984375 -2.046875 2.609375 -2.203125 2.15625 -2.203125 C 1.625 -2.203125 1.34375 -1.90625 1.21875 -1.71875 L 1.21875 -2.203125 L 0.40625 -2.140625 L 0.40625 -1.921875 C 0.78125 -1.921875 0.828125 -1.890625 0.828125 -1.65625 L 0.828125 -0.421875 C 0.828125 -0.265625 0.828125 -0.21875 0.5 -0.21875 L 0.40625 -0.21875 L 0.40625 0 C 0.625 -0.015625 0.828125 -0.015625 1.046875 -0.015625 C 1.25 -0.015625 1.46875 -0.015625 1.6875 0 L 1.6875 -0.21875 L 1.59375 -0.21875 C 1.265625 -0.21875 1.265625 -0.265625 1.265625 -0.421875 L 1.265625 -1.28125 C 1.265625 -1.84375 1.78125 -2.03125 2.09375 -2.03125 C 2.46875 -2.03125 2.546875 -1.828125 2.546875 -1.515625 L 2.546875 -0.421875 C 2.546875 -0.265625 2.546875 -0.21875 2.21875 -0.21875 L 2.140625 -0.21875 L 2.140625 0 C 2.34375 -0.015625 2.5625 -0.015625 2.765625 -0.015625 C 2.984375 -0.015625 3.1875 -0.015625 3.40625 0 L 3.40625 -0.21875 L 3.3125 -0.21875 C 2.984375 -0.21875 2.984375 -0.265625 2.984375 -0.421875 Z M 2.984375 -1.5 "/>
</symbol>
<symbol overflow="visible" id="glyph0-5">
<path style="stroke:none;" d="M 2.578125 -1.125 C 2.6875 -1.125 2.71875 -1.125 2.71875 -1.234375 C 2.71875 -1.578125 2.546875 -2.234375 1.609375 -2.234375 C 0.859375 -2.234375 0.328125 -1.6875 0.328125 -1.09375 C 0.328125 -0.46875 0.9375 0.0625 1.6875 0.0625 C 2.484375 0.0625 2.71875 -0.5 2.71875 -0.59375 C 2.71875 -0.671875 2.640625 -0.671875 2.625 -0.671875 C 2.546875 -0.671875 2.53125 -0.65625 2.5 -0.59375 C 2.375 -0.25 2 -0.125 1.71875 -0.125 C 1.3125 -0.125 1.09375 -0.34375 1.015625 -0.4375 C 0.828125 -0.671875 0.828125 -0.984375 0.828125 -1.125 Z M 0.828125 -1.28125 C 0.890625 -1.9375 1.375 -2.0625 1.609375 -2.0625 C 2.296875 -2.0625 2.34375 -1.421875 2.34375 -1.28125 Z M 0.828125 -1.28125 "/>
</symbol>
<symbol overflow="visible" id="glyph0-6">
<path style="stroke:none;" d="M 1.25 -3.453125 L 0.40625 -3.40625 L 0.40625 -3.1875 C 0.78125 -3.1875 0.828125 -3.15625 0.828125 -2.90625 L 0.828125 -0.421875 C 0.828125 -0.265625 0.828125 -0.21875 0.5 -0.21875 L 0.40625 -0.21875 L 0.40625 0 C 0.625 -0.015625 0.828125 -0.015625 1.03125 -0.015625 C 1.25 -0.015625 1.453125 -0.015625 1.671875 0 L 1.671875 -0.21875 L 1.578125 -0.21875 C 1.25 -0.21875 1.25 -0.265625 1.25 -0.421875 Z M 1.25 -3.453125 "/>
</symbol>
<symbol overflow="visible" id="glyph0-7">
<path style="stroke:none;" d="M 4.71875 -1.5 C 4.71875 -2.125 4.25 -2.203125 3.890625 -2.203125 C 3.390625 -2.203125 3.109375 -1.953125 2.96875 -1.734375 C 2.84375 -2.203125 2.34375 -2.203125 2.15625 -2.203125 C 1.640625 -2.203125 1.34375 -1.921875 1.21875 -1.71875 L 1.21875 -2.203125 L 0.40625 -2.140625 L 0.40625 -1.921875 C 0.78125 -1.921875 0.828125 -1.890625 0.828125 -1.65625 L 0.828125 -0.421875 C 0.828125 -0.265625 0.828125 -0.21875 0.5 -0.21875 L 0.40625 -0.21875 L 0.40625 0 C 0.625 -0.015625 0.828125 -0.015625 1.046875 -0.015625 C 1.25 -0.015625 1.46875 -0.015625 1.6875 0 L 1.6875 -0.21875 L 1.59375 -0.21875 C 1.265625 -0.21875 1.265625 -0.265625 1.265625 -0.421875 L 1.265625 -1.28125 C 1.265625 -1.84375 1.78125 -2.03125 2.09375 -2.03125 C 2.46875 -2.03125 2.546875 -1.828125 2.546875 -1.515625 L 2.546875 -0.421875 C 2.546875 -0.265625 2.546875 -0.21875 2.234375 -0.21875 L 2.140625 -0.21875 L 2.140625 0 C 2.359375 -0.015625 2.5625 -0.015625 2.78125 -0.015625 C 2.984375 -0.015625 3.203125 -0.015625 3.40625 0 L 3.40625 -0.21875 L 3.3125 -0.21875 C 3 -0.21875 3 -0.265625 3 -0.421875 L 3 -1.28125 C 3 -1.84375 3.5 -2.03125 3.828125 -2.03125 C 4.1875 -2.03125 4.28125 -1.828125 4.28125 -1.515625 L 4.28125 -0.421875 C 4.28125 -0.265625 4.28125 -0.21875 3.953125 -0.21875 L 3.875 -0.21875 L 3.875 0 C 4.078125 -0.015625 4.296875 -0.015625 4.5 -0.015625 C 4.71875 -0.015625 4.921875 -0.015625 5.140625 0 L 5.140625 -0.21875 L 5.046875 -0.21875 C 4.71875 -0.21875 4.71875 -0.265625 4.71875 -0.421875 Z M 4.71875 -1.5 "/>
</symbol>
<symbol overflow="visible" id="glyph0-8">
<path style="stroke:none;" d="M 2.234375 -2.09375 C 2.234375 -2.171875 2.234375 -2.234375 2.140625 -2.234375 C 2.125 -2.234375 2.109375 -2.234375 2.0625 -2.203125 C 2.046875 -2.171875 1.953125 -2.09375 1.9375 -2.09375 C 1.921875 -2.09375 1.921875 -2.09375 1.890625 -2.125 C 1.78125 -2.1875 1.59375 -2.234375 1.34375 -2.234375 C 0.515625 -2.234375 0.34375 -1.859375 0.34375 -1.625 C 0.34375 -1.15625 0.921875 -1.0625 1.390625 -1 C 1.671875 -0.953125 2.140625 -0.875 2.140625 -0.546875 C 2.140625 -0.375 1.984375 -0.109375 1.390625 -0.109375 C 1.046875 -0.109375 0.71875 -0.234375 0.5625 -0.765625 C 0.546875 -0.859375 0.53125 -0.875 0.453125 -0.875 C 0.34375 -0.875 0.34375 -0.828125 0.34375 -0.71875 L 0.34375 -0.078125 C 0.34375 0 0.34375 0.0625 0.421875 0.0625 C 0.46875 0.0625 0.46875 0.046875 0.5625 -0.046875 L 0.703125 -0.171875 C 0.953125 0.046875 1.265625 0.0625 1.390625 0.0625 C 2.21875 0.0625 2.375 -0.375 2.375 -0.625 C 2.375 -0.859375 2.265625 -1.015625 2.0625 -1.140625 C 1.875 -1.265625 1.71875 -1.28125 1.296875 -1.34375 C 0.984375 -1.390625 0.59375 -1.453125 0.59375 -1.71875 C 0.59375 -1.890625 0.796875 -2.078125 1.328125 -2.078125 C 1.75 -2.078125 1.984375 -1.921875 2.015625 -1.578125 C 2.03125 -1.5 2.03125 -1.46875 2.125 -1.46875 C 2.234375 -1.46875 2.234375 -1.5 2.234375 -1.609375 Z M 2.234375 -2.09375 "/>
</symbol>
<symbol overflow="visible" id="glyph0-9">
<path style="stroke:none;" d="M 2.296875 -1.9375 C 2.53125 -2.078125 2.75 -2.09375 2.84375 -2.09375 C 2.828125 -2.078125 2.796875 -2.046875 2.796875 -1.96875 C 2.796875 -1.875 2.859375 -1.796875 2.984375 -1.796875 C 3.09375 -1.796875 3.171875 -1.875 3.171875 -1.96875 C 3.171875 -2.109375 3.0625 -2.265625 2.828125 -2.265625 C 2.703125 -2.265625 2.4375 -2.234375 2.171875 -2.03125 C 2.0625 -2.09375 1.828125 -2.203125 1.53125 -2.203125 C 0.9375 -2.203125 0.53125 -1.859375 0.53125 -1.46875 C 0.53125 -1.21875 0.71875 -1.03125 0.78125 -0.96875 C 0.671875 -0.828125 0.640625 -0.671875 0.640625 -0.5625 C 0.640625 -0.296875 0.8125 -0.140625 0.859375 -0.109375 C 0.609375 -0.046875 0.3125 0.125 0.3125 0.390625 C 0.3125 0.78125 0.96875 1.03125 1.6875 1.03125 C 2.359375 1.03125 3.078125 0.8125 3.078125 0.375 C 3.078125 0.15625 2.953125 -0.09375 2.703125 -0.203125 C 2.375 -0.375 2.046875 -0.375 1.515625 -0.375 C 1.390625 -0.375 1.171875 -0.375 1.140625 -0.375 C 0.90625 -0.40625 0.859375 -0.609375 0.859375 -0.703125 C 0.859375 -0.796875 0.90625 -0.875 0.921875 -0.875 C 0.921875 -0.875 0.9375 -0.875 0.953125 -0.875 C 1.15625 -0.765625 1.34375 -0.734375 1.515625 -0.734375 C 2.109375 -0.734375 2.515625 -1.09375 2.515625 -1.46875 C 2.515625 -1.703125 2.359375 -1.890625 2.296875 -1.9375 Z M 1.53125 -0.90625 C 1.09375 -0.90625 0.96875 -1.1875 0.96875 -1.46875 C 0.96875 -1.75 1.09375 -2.03125 1.515625 -2.03125 C 1.953125 -2.03125 2.078125 -1.75 2.078125 -1.46875 C 2.078125 -1.203125 1.953125 -0.90625 1.53125 -0.90625 Z M 1.53125 0.015625 C 2.03125 0.015625 2.734375 0.015625 2.734375 0.390625 C 2.734375 0.625 2.28125 0.859375 1.6875 0.859375 C 1.125 0.859375 0.65625 0.640625 0.65625 0.375 C 0.65625 0.21875 0.828125 0.015625 1.203125 0.015625 Z M 1.53125 0.015625 "/>
</symbol>
<symbol overflow="visible" id="glyph0-10">
<path style="stroke:none;" d="M 1.21875 -1.109375 C 1.21875 -1.578125 1.484375 -2.03125 1.953125 -2.03125 C 1.953125 -2.03125 1.890625 -1.96875 1.890625 -1.859375 C 1.890625 -1.6875 2.03125 -1.609375 2.140625 -1.609375 C 2.265625 -1.609375 2.390625 -1.6875 2.390625 -1.859375 C 2.390625 -2.046875 2.203125 -2.203125 1.9375 -2.203125 C 1.6875 -2.203125 1.375 -2.078125 1.1875 -1.65625 L 1.171875 -1.65625 L 1.171875 -2.203125 L 0.375 -2.140625 L 0.375 -1.921875 C 0.75 -1.921875 0.796875 -1.890625 0.796875 -1.65625 L 0.796875 -0.421875 C 0.796875 -0.265625 0.796875 -0.21875 0.46875 -0.21875 L 0.375 -0.21875 L 0.375 0 C 0.59375 -0.015625 0.8125 -0.015625 1.015625 -0.015625 C 1.28125 -0.015625 1.53125 -0.015625 1.734375 0 L 1.734375 -0.21875 L 1.59375 -0.21875 C 1.21875 -0.21875 1.21875 -0.265625 1.21875 -0.421875 Z M 1.21875 -1.109375 "/>
</symbol>
<symbol overflow="visible" id="glyph0-11">
<path style="stroke:none;" d="M 2.75 -1.625 C 2.8125 -1.734375 2.90625 -1.921875 3.28125 -1.921875 L 3.28125 -2.140625 C 3.171875 -2.140625 3.03125 -2.125 2.84375 -2.125 C 2.6875 -2.125 2.5 -2.140625 2.34375 -2.140625 L 2.34375 -1.921875 C 2.46875 -1.921875 2.546875 -1.859375 2.546875 -1.75 C 2.546875 -1.71875 2.53125 -1.6875 2.515625 -1.640625 L 1.90625 -0.453125 L 1.21875 -1.75 C 1.203125 -1.796875 1.203125 -1.8125 1.203125 -1.828125 C 1.203125 -1.921875 1.328125 -1.921875 1.46875 -1.921875 L 1.46875 -2.140625 C 1.25 -2.140625 1.046875 -2.125 0.84375 -2.125 C 0.625 -2.125 0.5 -2.125 0.28125 -2.140625 L 0.28125 -1.921875 C 0.640625 -1.921875 0.65625 -1.90625 0.734375 -1.765625 L 1.65625 0 C 1.453125 0.4375 1.25 0.859375 0.828125 0.859375 C 0.703125 0.859375 0.65625 0.84375 0.609375 0.796875 C 0.640625 0.78125 0.75 0.734375 0.75 0.578125 C 0.75 0.421875 0.640625 0.328125 0.5 0.328125 C 0.390625 0.328125 0.265625 0.40625 0.265625 0.578125 C 0.265625 0.828125 0.515625 1.015625 0.828125 1.015625 C 1.125 1.015625 1.453125 0.84375 1.6875 0.40625 Z M 2.75 -1.625 "/>
</symbol>
<symbol overflow="visible" id="glyph1-0">
<path style="stroke:none;" d="M 2.09375 1.28125 C 1.578125 1.28125 1.484375 1.28125 1.484375 0.921875 L 1.484375 -0.390625 C 1.859375 0.015625 2.265625 0.078125 2.53125 0.078125 C 3.53125 0.078125 4.421875 -0.703125 4.421875 -1.71875 C 4.421875 -2.71875 3.609375 -3.515625 2.640625 -3.515625 C 2.328125 -3.515625 1.875 -3.4375 1.46875 -3.015625 L 1.46875 -3.515625 L 0.28125 -3.421875 L 0.28125 -3.15625 C 0.84375 -3.15625 0.890625 -3.109375 0.890625 -2.78125 L 0.890625 0.921875 C 0.890625 1.28125 0.78125 1.28125 0.28125 1.28125 L 0.28125 1.546875 C 0.625 1.515625 0.96875 1.515625 1.1875 1.515625 C 1.421875 1.515625 1.75 1.515625 2.09375 1.546875 Z M 1.484375 -2.65625 C 1.671875 -2.96875 2.078125 -3.265625 2.578125 -3.265625 C 3.1875 -3.265625 3.703125 -2.59375 3.703125 -1.71875 C 3.703125 -0.8125 3.125 -0.140625 2.484375 -0.140625 C 2.203125 -0.140625 1.84375 -0.265625 1.578125 -0.65625 C 1.484375 -0.796875 1.484375 -0.8125 1.484375 -0.953125 Z M 1.484375 -2.65625 "/>
</symbol>
<symbol overflow="visible" id="glyph1-1">
<path style="stroke:none;" d="M 1.46875 -1.8125 C 1.46875 -2.421875 1.71875 -3.28125 2.484375 -3.296875 C 2.4375 -3.265625 2.34375 -3.203125 2.34375 -3.015625 C 2.34375 -2.765625 2.546875 -2.65625 2.703125 -2.65625 C 2.890625 -2.65625 3.0625 -2.78125 3.0625 -3.015625 C 3.0625 -3.296875 2.8125 -3.515625 2.453125 -3.515625 C 1.9375 -3.515625 1.578125 -3.125 1.421875 -2.671875 L 1.40625 -2.671875 L 1.40625 -3.515625 L 0.28125 -3.421875 L 0.28125 -3.15625 C 0.828125 -3.15625 0.890625 -3.109375 0.890625 -2.71875 L 0.890625 -0.625 C 0.890625 -0.265625 0.78125 -0.265625 0.28125 -0.265625 L 0.28125 0 C 0.59375 -0.03125 1.03125 -0.03125 1.21875 -0.03125 C 1.6875 -0.03125 1.703125 -0.03125 2.21875 0 L 2.21875 -0.265625 L 2.0625 -0.265625 C 1.484375 -0.265625 1.46875 -0.34375 1.46875 -0.640625 Z M 1.46875 -1.8125 "/>
</symbol>
<symbol overflow="visible" id="glyph1-2">
<path style="stroke:none;" d="M 1.546875 -4.90625 C 1.546875 -5.140625 1.375 -5.359375 1.109375 -5.359375 C 0.875 -5.359375 0.671875 -5.171875 0.671875 -4.921875 C 0.671875 -4.640625 0.90625 -4.46875 1.109375 -4.46875 C 1.390625 -4.46875 1.546875 -4.703125 1.546875 -4.90625 Z M 0.359375 -3.421875 L 0.359375 -3.15625 C 0.875 -3.15625 0.9375 -3.109375 0.9375 -2.71875 L 0.9375 -0.625 C 0.9375 -0.265625 0.84375 -0.265625 0.328125 -0.265625 L 0.328125 0 C 0.640625 -0.03125 1.09375 -0.03125 1.21875 -0.03125 C 1.3125 -0.03125 1.796875 -0.03125 2.078125 0 L 2.078125 -0.265625 C 1.546875 -0.265625 1.515625 -0.296875 1.515625 -0.609375 L 1.515625 -3.515625 Z M 0.359375 -3.421875 "/>
</symbol>
<symbol overflow="visible" id="glyph1-3">
<path style="stroke:none;" d="M 6.21875 -2.421875 C 6.21875 -3.0625 5.9375 -3.515625 5.078125 -3.515625 C 4.34375 -3.515625 3.96875 -3.015625 3.84375 -2.78125 C 3.703125 -3.359375 3.25 -3.515625 2.734375 -3.515625 C 1.953125 -3.515625 1.59375 -2.96875 1.484375 -2.75 L 1.484375 -3.515625 L 0.328125 -3.421875 L 0.328125 -3.15625 C 0.875 -3.15625 0.9375 -3.109375 0.9375 -2.71875 L 0.9375 -0.625 C 0.9375 -0.265625 0.84375 -0.265625 0.328125 -0.265625 L 0.328125 0 C 0.671875 -0.03125 1.015625 -0.03125 1.234375 -0.03125 C 1.46875 -0.03125 1.796875 -0.03125 2.140625 0 L 2.140625 -0.265625 C 1.640625 -0.265625 1.53125 -0.265625 1.53125 -0.625 L 1.53125 -2.0625 C 1.53125 -2.90625 2.171875 -3.296875 2.671875 -3.296875 C 3.1875 -3.296875 3.28125 -2.890625 3.28125 -2.453125 L 3.28125 -0.625 C 3.28125 -0.265625 3.171875 -0.265625 2.671875 -0.265625 L 2.671875 0 C 3.015625 -0.03125 3.359375 -0.03125 3.578125 -0.03125 C 3.8125 -0.03125 4.140625 -0.03125 4.484375 0 L 4.484375 -0.265625 C 3.96875 -0.265625 3.875 -0.265625 3.875 -0.625 L 3.875 -2.0625 C 3.875 -2.90625 4.515625 -3.296875 5.015625 -3.296875 C 5.53125 -3.296875 5.625 -2.890625 5.625 -2.453125 L 5.625 -0.625 C 5.625 -0.265625 5.515625 -0.265625 5.015625 -0.265625 L 5.015625 0 C 5.359375 -0.03125 5.703125 -0.03125 5.921875 -0.03125 C 6.15625 -0.03125 6.484375 -0.03125 6.828125 0 L 6.828125 -0.265625 C 6.3125 -0.265625 6.21875 -0.265625 6.21875 -0.625 Z M 6.21875 -2.421875 "/>
</symbol>
<symbol overflow="visible" id="glyph1-4">
<path style="stroke:none;" d="M 3.34375 -2.375 C 3.34375 -3.15625 2.59375 -3.546875 1.859375 -3.546875 C 1.203125 -3.546875 0.609375 -3.296875 0.609375 -2.765625 C 0.609375 -2.53125 0.78125 -2.390625 0.984375 -2.390625 C 1.21875 -2.390625 1.359375 -2.546875 1.359375 -2.765625 C 1.359375 -2.953125 1.25 -3.09375 1.0625 -3.125 C 1.359375 -3.328125 1.796875 -3.328125 1.84375 -3.328125 C 2.296875 -3.328125 2.734375 -3.015625 2.734375 -2.359375 L 2.734375 -2.125 C 2.28125 -2.09375 1.75 -2.078125 1.1875 -1.84375 C 0.484375 -1.53125 0.34375 -1.078125 0.34375 -0.8125 C 0.34375 -0.125 1.15625 0.078125 1.703125 0.078125 C 2.28125 0.078125 2.640625 -0.25 2.828125 -0.5625 C 2.859375 -0.265625 3.0625 0.046875 3.421875 0.046875 C 3.5 0.046875 4.171875 0.015625 4.171875 -0.71875 L 4.171875 -1.15625 L 3.921875 -1.15625 L 3.921875 -0.71875 C 3.921875 -0.390625 3.8125 -0.265625 3.640625 -0.265625 C 3.34375 -0.265625 3.34375 -0.625 3.34375 -0.71875 Z M 2.734375 -1.125 C 2.734375 -0.34375 2.09375 -0.140625 1.765625 -0.140625 C 1.359375 -0.140625 1 -0.421875 1 -0.8125 C 1 -1.328125 1.5 -1.875 2.734375 -1.90625 Z M 2.734375 -1.125 "/>
</symbol>
<symbol overflow="visible" id="glyph1-5">
<path style="stroke:none;" d="M 3.53125 -2.625 C 3.734375 -3.078125 4.03125 -3.15625 4.28125 -3.171875 L 4.28125 -3.4375 C 4.015625 -3.40625 4 -3.40625 3.65625 -3.40625 C 3.625 -3.40625 3.203125 -3.40625 2.96875 -3.4375 L 2.96875 -3.171875 C 3.203125 -3.15625 3.3125 -3.03125 3.3125 -2.84375 C 3.3125 -2.796875 3.3125 -2.734375 3.265625 -2.640625 L 2.421875 -0.71875 L 1.484375 -2.8125 C 1.4375 -2.921875 1.4375 -2.9375 1.4375 -2.96875 C 1.4375 -3.15625 1.6875 -3.171875 1.859375 -3.171875 L 1.859375 -3.4375 C 1.5 -3.40625 1.15625 -3.40625 0.984375 -3.40625 C 0.8125 -3.40625 0.4375 -3.40625 0.171875 -3.4375 L 0.171875 -3.171875 C 0.59375 -3.171875 0.703125 -3.15625 0.84375 -2.859375 L 2.09375 0 C 1.734375 0.84375 1.5 1.40625 0.9375 1.40625 C 0.734375 1.40625 0.609375 1.3125 0.609375 1.3125 C 0.671875 1.296875 0.859375 1.203125 0.859375 0.96875 C 0.859375 0.75 0.6875 0.625 0.515625 0.625 C 0.34375 0.625 0.171875 0.734375 0.171875 0.984375 C 0.171875 1.328125 0.515625 1.625 0.9375 1.625 C 1.65625 1.625 2.03125 0.765625 2.0625 0.6875 Z M 3.53125 -2.625 "/>
</symbol>
<symbol overflow="visible" id="glyph1-6">
<path style="stroke:none;" d="M 1.46875 -5.53125 L 0.28125 -5.4375 L 0.28125 -5.171875 C 0.828125 -5.171875 0.890625 -5.125 0.890625 -4.734375 L 0.890625 0 L 1.125 0 L 1.421875 -0.5 C 1.609375 -0.21875 1.984375 0.078125 2.53125 0.078125 C 3.53125 0.078125 4.421875 -0.703125 4.421875 -1.71875 C 4.421875 -2.71875 3.59375 -3.515625 2.625 -3.515625 C 1.984375 -3.515625 1.609375 -3.171875 1.46875 -3.03125 Z M 1.484375 -2.515625 C 1.484375 -2.671875 1.484375 -2.6875 1.609375 -2.828125 C 1.84375 -3.125 2.21875 -3.296875 2.578125 -3.296875 C 2.984375 -3.296875 3.296875 -3.046875 3.453125 -2.8125 C 3.59375 -2.59375 3.703125 -2.3125 3.703125 -1.734375 C 3.703125 -1.546875 3.703125 -0.984375 3.421875 -0.609375 C 3.125 -0.25 2.75 -0.140625 2.5 -0.140625 C 2.109375 -0.140625 1.796875 -0.34375 1.578125 -0.65625 C 1.484375 -0.8125 1.484375 -0.8125 1.484375 -0.96875 Z M 1.484375 -2.515625 "/>
</symbol>
<symbol overflow="visible" id="glyph1-7">
<path style="stroke:none;" d="M 3.984375 -1.703125 C 3.984375 -2.6875 3.15625 -3.546875 2.109375 -3.546875 C 1.0625 -3.546875 0.234375 -2.6875 0.234375 -1.703125 C 0.234375 -0.703125 1.09375 0.078125 2.109375 0.078125 C 3.140625 0.078125 3.984375 -0.703125 3.984375 -1.703125 Z M 2.109375 -0.171875 C 1.6875 -0.171875 1.34375 -0.375 1.171875 -0.65625 C 0.96875 -0.984375 0.953125 -1.375 0.953125 -1.765625 C 0.953125 -2.078125 0.953125 -2.546875 1.1875 -2.890625 C 1.40625 -3.171875 1.734375 -3.328125 2.109375 -3.328125 C 2.53125 -3.328125 2.875 -3.125 3.046875 -2.859375 C 3.265625 -2.515625 3.28125 -2.09375 3.28125 -1.765625 C 3.28125 -1.40625 3.265625 -0.96875 3.03125 -0.625 C 2.828125 -0.3125 2.46875 -0.171875 2.109375 -0.171875 Z M 2.109375 -0.171875 "/>
</symbol>
<symbol overflow="visible" id="glyph1-8">
<path style="stroke:none;" d="M 1.484375 -3.171875 L 2.671875 -3.171875 L 2.671875 -3.4375 L 1.484375 -3.4375 L 1.484375 -4.90625 L 1.234375 -4.90625 C 1.234375 -4.171875 0.90625 -3.421875 0.15625 -3.390625 L 0.15625 -3.171875 L 0.875 -3.171875 L 0.875 -1 C 0.875 -0.0625 1.59375 0.078125 1.953125 0.078125 C 2.5 0.078125 2.8125 -0.390625 2.8125 -1 L 2.8125 -1.4375 L 2.5625 -1.4375 L 2.5625 -1.015625 C 2.5625 -0.46875 2.3125 -0.171875 2.015625 -0.171875 C 1.484375 -0.171875 1.484375 -0.859375 1.484375 -0.984375 Z M 1.484375 -3.171875 "/>
</symbol>
<symbol overflow="visible" id="glyph2-0">
<path style="stroke:none;" d="M 4.34375 -1.796875 L 4.171875 -1.796875 C 4.09375 -1.09375 4 -0.21875 2.71875 -0.21875 L 2.0625 -0.21875 C 1.734375 -0.21875 1.71875 -0.265625 1.71875 -0.5 L 1.71875 -4.203125 C 1.71875 -4.453125 1.71875 -4.546875 2.390625 -4.546875 L 2.609375 -4.546875 L 2.609375 -4.765625 C 2.359375 -4.734375 1.734375 -4.734375 1.4375 -4.734375 C 1.171875 -4.734375 0.625 -4.734375 0.390625 -4.765625 L 0.390625 -4.546875 L 0.546875 -4.546875 C 1.09375 -4.546875 1.09375 -4.46875 1.09375 -4.21875 L 1.09375 -0.546875 C 1.09375 -0.296875 1.09375 -0.21875 0.546875 -0.21875 L 0.390625 -0.21875 L 0.390625 0 L 4.15625 0 Z M 4.34375 -1.796875 "/>
</symbol>
<symbol overflow="visible" id="glyph2-1">
<path style="stroke:none;" d="M 2.296875 -3.546875 C 2.25 -3.65625 2.21875 -3.703125 2.140625 -3.703125 C 2.046875 -3.703125 2.03125 -3.65625 2 -3.5625 L 0.875 -0.6875 C 0.796875 -0.5 0.671875 -0.1875 0.234375 -0.171875 L 0.234375 0 C 0.390625 -0.015625 0.59375 -0.015625 0.75 -0.015625 C 0.859375 -0.015625 1.1875 0 1.328125 0 L 1.328125 -0.171875 C 1.03125 -0.1875 1.015625 -0.421875 1.015625 -0.484375 C 1.015625 -0.546875 1.015625 -0.5625 1.25 -1.171875 L 2.6875 -1.171875 L 2.84375 -0.78125 C 2.90625 -0.640625 2.984375 -0.40625 2.984375 -0.375 C 2.984375 -0.171875 2.734375 -0.171875 2.625 -0.171875 L 2.625 0 C 2.8125 0 3.21875 -0.015625 3.359375 -0.015625 C 3.59375 -0.015625 3.875 0 4.03125 0 L 4.03125 -0.171875 C 3.640625 -0.171875 3.578125 -0.203125 3.484375 -0.453125 Z M 2.625 -1.359375 L 1.3125 -1.359375 L 1.96875 -3.03125 Z M 2.625 -1.359375 "/>
</symbol>
<symbol overflow="visible" id="glyph2-2">
<path style="stroke:none;" d="M 2.328125 -1.671875 L 1.359375 -3.078125 C 1.328125 -3.125 1.28125 -3.203125 1.28125 -3.265625 C 1.28125 -3.40625 1.484375 -3.40625 1.5625 -3.40625 L 1.5625 -3.578125 C 1.375 -3.578125 0.921875 -3.5625 0.8125 -3.5625 C 0.625 -3.5625 0.34375 -3.5625 0.125 -3.578125 L 0.125 -3.40625 C 0.5 -3.40625 0.578125 -3.359375 0.703125 -3.1875 L 1.890625 -1.4375 L 1.890625 -0.5 C 1.890625 -0.21875 1.859375 -0.171875 1.390625 -0.171875 L 1.390625 0 C 1.609375 0 1.9375 -0.015625 2.125 -0.015625 C 2.328125 -0.015625 2.703125 0 2.875 0 L 2.875 -0.171875 C 2.40625 -0.171875 2.375 -0.21875 2.375 -0.515625 L 2.375 -1.421875 L 3.390625 -2.921875 C 3.640625 -3.296875 3.875 -3.390625 4.140625 -3.40625 L 4.140625 -3.578125 C 4 -3.5625 3.796875 -3.5625 3.65625 -3.5625 C 3.46875 -3.5625 3.265625 -3.5625 3.078125 -3.578125 L 3.078125 -3.40625 C 3.234375 -3.390625 3.28125 -3.3125 3.28125 -3.203125 C 3.28125 -3.09375 3.21875 -3.015625 3.171875 -2.9375 Z M 2.328125 -1.671875 "/>
</symbol>
<symbol overflow="visible" id="glyph2-3">
<path style="stroke:none;" d="M 4.078125 -1.78125 C 4.078125 -2.8125 3.25 -3.671875 2.21875 -3.671875 C 1.171875 -3.671875 0.359375 -2.8125 0.359375 -1.78125 C 0.359375 -0.71875 1.203125 0.09375 2.21875 0.09375 C 3.234375 0.09375 4.078125 -0.71875 4.078125 -1.78125 Z M 2.21875 -0.078125 C 1.71875 -0.078125 0.953125 -0.484375 0.953125 -1.859375 C 0.953125 -3.15625 1.75 -3.5 2.21875 -3.5 C 2.6875 -3.5 3.484375 -3.15625 3.484375 -1.859375 C 3.484375 -0.484375 2.703125 -0.078125 2.21875 -0.078125 Z M 2.21875 -0.078125 "/>
</symbol>
<symbol overflow="visible" id="glyph2-4">
<path style="stroke:none;" d="M 1.296875 -3.078125 C 1.296875 -3.359375 1.34375 -3.40625 1.8125 -3.40625 L 1.8125 -3.578125 C 1.609375 -3.578125 1.203125 -3.5625 1.046875 -3.5625 C 0.90625 -3.5625 0.515625 -3.578125 0.296875 -3.578125 L 0.296875 -3.40625 C 0.78125 -3.40625 0.796875 -3.359375 0.796875 -3.0625 L 0.796875 -1.546875 C 0.796875 -1.375 0.796875 -1.125 0.8125 -1.03125 C 0.875 -0.46875 1.4375 0.09375 2.203125 0.09375 C 3.015625 0.09375 3.46875 -0.609375 3.46875 -1.125 L 3.46875 -2.96875 C 3.484375 -3.25 3.65625 -3.40625 3.96875 -3.40625 L 3.96875 -3.578125 C 3.796875 -3.5625 3.421875 -3.5625 3.390625 -3.5625 C 3.1875 -3.5625 2.984375 -3.5625 2.796875 -3.578125 L 2.796875 -3.40625 C 3.296875 -3.40625 3.296875 -3.03125 3.296875 -2.875 L 3.296875 -1.234375 C 3.296875 -0.4375 2.703125 -0.078125 2.21875 -0.078125 C 2.015625 -0.078125 1.296875 -0.15625 1.296875 -1.203125 Z M 1.296875 -3.078125 "/>
</symbol>
<symbol overflow="visible" id="glyph2-5">
<path style="stroke:none;" d="M 3.765625 -3.546875 L 0.34375 -3.546875 L 0.25 -2.359375 L 0.421875 -2.359375 C 0.484375 -3.234375 0.625 -3.359375 1.40625 -3.359375 C 1.796875 -3.359375 1.8125 -3.359375 1.8125 -3.0625 L 1.8125 -0.53125 C 1.8125 -0.25 1.78125 -0.171875 1.25 -0.171875 L 1.09375 -0.171875 L 1.09375 0 C 1.375 -0.015625 1.78125 -0.015625 2.0625 -0.015625 C 2.34375 -0.015625 2.75 -0.015625 3.03125 0 L 3.03125 -0.171875 L 2.875 -0.171875 C 2.34375 -0.171875 2.3125 -0.25 2.3125 -0.53125 L 2.3125 -3.0625 C 2.3125 -3.359375 2.328125 -3.359375 2.71875 -3.359375 C 3.484375 -3.359375 3.625 -3.25 3.6875 -2.359375 L 3.875 -2.359375 Z M 3.765625 -3.546875 "/>
</symbol>
<symbol overflow="visible" id="glyph2-6">
<path style="stroke:none;" d="M 3.921875 -3.375 L 3.9375 -3.375 L 3.9375 -0.5 C 3.9375 -0.21875 3.890625 -0.171875 3.421875 -0.171875 L 3.421875 0 C 3.5625 0 3.90625 -0.015625 4.15625 -0.015625 C 4.390625 -0.015625 4.640625 0 4.875 0 L 4.875 -0.171875 C 4.40625 -0.171875 4.375 -0.21875 4.375 -0.5 L 4.375 -3.078125 C 4.375 -3.359375 4.40625 -3.40625 4.875 -3.40625 L 4.875 -3.578125 L 4.03125 -3.578125 C 3.875 -3.578125 3.859375 -3.578125 3.796875 -3.453125 L 2.609375 -0.515625 L 1.40625 -3.453125 C 1.359375 -3.578125 1.3125 -3.578125 1.171875 -3.578125 L 0.328125 -3.578125 L 0.328125 -3.40625 C 0.796875 -3.40625 0.828125 -3.359375 0.828125 -3.078125 L 0.828125 -0.703125 C 0.828125 -0.546875 0.828125 -0.171875 0.328125 -0.171875 L 0.328125 0 C 0.46875 0 0.78125 -0.015625 0.921875 -0.015625 C 1.03125 -0.015625 1.359375 -0.015625 1.53125 0 L 1.53125 -0.171875 C 1.03125 -0.171875 1.03125 -0.546875 1.03125 -0.703125 L 1.03125 -3.328125 L 2.328125 -0.125 C 2.359375 -0.0625 2.390625 0 2.46875 0 C 2.53125 0 2.578125 -0.0625 2.59375 -0.125 Z M 3.921875 -3.375 "/>
</symbol>
<symbol overflow="visible" id="glyph2-7">
<path style="stroke:none;" d="M 1.34375 -3.484375 C 1.28125 -3.578125 1.265625 -3.578125 1.140625 -3.578125 L 0.296875 -3.578125 L 0.296875 -3.40625 C 0.46875 -3.40625 0.65625 -3.40625 0.796875 -3.359375 L 0.796875 -0.703125 C 0.796875 -0.546875 0.796875 -0.171875 0.296875 -0.171875 L 0.296875 0 C 0.453125 0 0.765625 -0.015625 0.90625 -0.015625 C 1 -0.015625 1.328125 -0.015625 1.5 0 L 1.5 -0.171875 C 1 -0.171875 1 -0.546875 1 -0.703125 L 1 -3.203125 L 1.0625 -3.109375 L 3.25 -0.078125 C 3.3125 0 3.328125 0 3.375 0 C 3.46875 0 3.46875 -0.046875 3.46875 -0.1875 L 3.46875 -2.875 C 3.46875 -3.03125 3.46875 -3.40625 3.96875 -3.40625 L 3.96875 -3.578125 C 3.828125 -3.578125 3.515625 -3.5625 3.375 -3.5625 C 3.265625 -3.5625 2.953125 -3.5625 2.78125 -3.578125 L 2.78125 -3.40625 C 3.28125 -3.40625 3.28125 -3.03125 3.28125 -2.875 L 3.28125 -0.8125 Z M 1.34375 -3.484375 "/>
</symbol>
<symbol overflow="visible" id="glyph2-8">
<path style="stroke:none;" d="M 1.296875 -3.078125 C 1.296875 -3.375 1.34375 -3.40625 1.828125 -3.40625 L 1.828125 -3.578125 C 1.59375 -3.578125 1.234375 -3.5625 1.046875 -3.5625 C 0.875 -3.5625 0.515625 -3.578125 0.265625 -3.578125 L 0.265625 -3.40625 C 0.765625 -3.40625 0.796875 -3.375 0.796875 -3.078125 L 0.796875 -0.515625 C 0.796875 -0.203125 0.765625 -0.171875 0.265625 -0.171875 L 0.265625 0 C 0.515625 0 0.875 -0.015625 1.046875 -0.015625 C 1.234375 -0.015625 1.59375 0 1.828125 0 L 1.828125 -0.171875 C 1.34375 -0.171875 1.296875 -0.203125 1.296875 -0.515625 Z M 1.296875 -3.078125 "/>
</symbol>
<symbol overflow="visible" id="glyph2-9">
<path style="stroke:none;" d="M 1.296875 -3.109375 C 1.296875 -3.28125 1.3125 -3.359375 1.375 -3.390625 C 1.421875 -3.40625 1.609375 -3.40625 1.734375 -3.40625 C 2.265625 -3.40625 2.84375 -3.390625 2.84375 -2.640625 C 2.84375 -2.375 2.8125 -1.875 1.90625 -1.875 L 1.296875 -1.875 Z M 2.53125 -1.78125 C 3.015625 -1.90625 3.453125 -2.21875 3.453125 -2.640625 C 3.453125 -3.125 2.828125 -3.578125 1.984375 -3.578125 L 0.3125 -3.578125 L 0.3125 -3.40625 C 0.78125 -3.40625 0.8125 -3.359375 0.8125 -3.078125 L 0.8125 -0.5 C 0.8125 -0.21875 0.78125 -0.171875 0.3125 -0.171875 L 0.3125 0 C 0.515625 0 0.859375 -0.015625 1.046875 -0.015625 C 1.25 -0.015625 1.609375 0 1.796875 0 L 1.796875 -0.171875 C 1.328125 -0.171875 1.296875 -0.21875 1.296875 -0.5 L 1.296875 -1.71875 L 1.921875 -1.71875 C 2.09375 -1.71875 2.28125 -1.703125 2.5 -1.484375 C 2.640625 -1.34375 2.640625 -1.171875 2.640625 -0.859375 C 2.640625 -0.46875 2.640625 -0.34375 2.859375 -0.125 C 2.984375 0 3.265625 0.09375 3.578125 0.09375 C 4.03125 0.09375 4.125 -0.328125 4.125 -0.46875 C 4.125 -0.515625 4.125 -0.578125 4.046875 -0.578125 C 3.96875 -0.578125 3.953125 -0.515625 3.953125 -0.484375 C 3.90625 -0.0625 3.65625 -0.0625 3.609375 -0.0625 C 3.46875 -0.0625 3.40625 -0.140625 3.359375 -0.21875 C 3.3125 -0.328125 3.265625 -0.53125 3.171875 -0.96875 C 3.125 -1.21875 3.046875 -1.578125 2.53125 -1.78125 Z M 2.53125 -1.78125 "/>
</symbol>
<symbol overflow="visible" id="glyph2-10">
<path style="stroke:none;" d="M 0.8125 -0.5 C 0.8125 -0.21875 0.78125 -0.171875 0.3125 -0.171875 L 0.3125 0 L 2.265625 0 C 3.25 0 4 -0.8125 4 -1.765625 C 4 -2.71875 3.28125 -3.578125 2.265625 -3.578125 L 0.3125 -3.578125 L 0.3125 -3.40625 C 0.78125 -3.40625 0.8125 -3.359375 0.8125 -3.078125 Z M 1.578125 -0.171875 C 1.328125 -0.171875 1.296875 -0.1875 1.296875 -0.46875 L 1.296875 -3.109375 C 1.296875 -3.390625 1.328125 -3.40625 1.578125 -3.40625 L 2.109375 -3.40625 C 2.703125 -3.40625 3.015625 -3.078125 3.109375 -2.953125 C 3.265625 -2.765625 3.421875 -2.46875 3.421875 -1.765625 C 3.421875 -1.1875 3.3125 -0.90625 3.15625 -0.671875 C 3.046875 -0.515625 2.75 -0.171875 2.109375 -0.171875 Z M 1.578125 -0.171875 "/>
</symbol>
<symbol overflow="visible" id="glyph2-11">
<path style="stroke:none;" d="M 4.421875 -4.296875 C 4.1875 -4.53125 3.765625 -4.90625 3.046875 -4.90625 C 1.671875 -4.90625 0.5 -3.796875 0.5 -2.390625 C 0.5 -0.96875 1.671875 0.15625 3.046875 0.15625 C 4.234375 0.15625 4.96875 -0.796875 4.96875 -1.625 C 4.96875 -1.6875 4.96875 -1.734375 4.875 -1.734375 C 4.796875 -1.734375 4.796875 -1.703125 4.796875 -1.625 C 4.734375 -0.625 3.921875 -0.0625 3.140625 -0.0625 C 2.53125 -0.0625 1.21875 -0.421875 1.21875 -2.375 C 1.21875 -4.4375 2.640625 -4.703125 3.125 -4.703125 C 3.875 -4.703125 4.578125 -4.125 4.75 -3.046875 C 4.765625 -2.953125 4.765625 -2.921875 4.859375 -2.921875 C 4.96875 -2.921875 4.96875 -2.953125 4.96875 -3.09375 L 4.96875 -4.75 C 4.96875 -4.859375 4.96875 -4.90625 4.890625 -4.90625 C 4.859375 -4.90625 4.84375 -4.90625 4.78125 -4.828125 Z M 4.421875 -4.296875 "/>
</symbol>
<symbol overflow="visible" id="glyph2-12">
<path style="stroke:none;" d="M 2.96875 -1.953125 L 1.296875 -1.953125 L 1.296875 -3.078125 C 1.296875 -3.359375 1.34375 -3.40625 1.8125 -3.40625 L 1.8125 -3.578125 C 1.609375 -3.578125 1.203125 -3.5625 1.046875 -3.5625 C 0.90625 -3.5625 0.515625 -3.578125 0.296875 -3.578125 L 0.296875 -3.40625 C 0.765625 -3.40625 0.796875 -3.359375 0.796875 -3.078125 L 0.796875 -0.5 C 0.796875 -0.21875 0.765625 -0.171875 0.296875 -0.171875 L 0.296875 0 C 0.5 0 0.90625 -0.015625 1.046875 -0.015625 C 1.203125 -0.015625 1.59375 0 1.8125 0 L 1.8125 -0.171875 C 1.34375 -0.171875 1.296875 -0.21875 1.296875 -0.5 L 1.296875 -1.78125 L 2.96875 -1.78125 L 2.96875 -0.5 C 2.96875 -0.21875 2.9375 -0.171875 2.46875 -0.171875 L 2.46875 0 C 2.671875 0 3.0625 -0.015625 3.21875 -0.015625 C 3.375 -0.015625 3.765625 0 3.96875 0 L 3.96875 -0.171875 C 3.5 -0.171875 3.46875 -0.21875 3.46875 -0.5 L 3.46875 -3.078125 C 3.46875 -3.359375 3.5 -3.40625 3.96875 -3.40625 L 3.96875 -3.578125 C 3.765625 -3.578125 3.375 -3.5625 3.21875 -3.5625 C 3.0625 -3.5625 2.671875 -3.578125 2.46875 -3.578125 L 2.46875 -3.40625 C 2.9375 -3.40625 2.96875 -3.359375 2.96875 -3.078125 Z M 2.96875 -1.953125 "/>
</symbol>
<symbol overflow="visible" id="glyph2-13">
<path style="stroke:none;" d="M 3.40625 -3.5625 L 0.296875 -3.5625 L 0.296875 -3.390625 C 0.765625 -3.390625 0.796875 -3.34375 0.796875 -3.0625 L 0.796875 -0.5 C 0.796875 -0.21875 0.765625 -0.171875 0.296875 -0.171875 L 0.296875 0 L 3.484375 0 L 3.6875 -1.359375 L 3.515625 -1.359375 C 3.390625 -0.515625 3.21875 -0.171875 2.328125 -0.171875 L 1.578125 -0.171875 C 1.34375 -0.171875 1.296875 -0.1875 1.296875 -0.46875 L 1.296875 -1.765625 L 1.796875 -1.765625 C 2.3125 -1.765625 2.390625 -1.625 2.390625 -1.15625 L 2.5625 -1.15625 L 2.5625 -2.546875 L 2.390625 -2.546875 C 2.390625 -2.078125 2.3125 -1.9375 1.796875 -1.9375 L 1.296875 -1.9375 L 1.296875 -3.09375 C 1.296875 -3.359375 1.34375 -3.390625 1.578125 -3.390625 L 2.296875 -3.390625 C 3.09375 -3.390625 3.28125 -3.140625 3.359375 -2.390625 L 3.53125 -2.390625 Z M 3.40625 -3.5625 "/>
</symbol>
<symbol overflow="visible" id="glyph3-0">
<path style="stroke:none;" d="M 5.734375 -2.109375 C 5.734375 -2.71875 5.421875 -3.078125 4.6875 -3.078125 C 4.125 -3.078125 3.75 -2.78125 3.5625 -2.421875 C 3.421875 -2.921875 3.046875 -3.078125 2.546875 -3.078125 C 1.96875 -3.078125 1.609375 -2.765625 1.40625 -2.390625 L 1.40625 -3.078125 L 0.375 -3 L 0.375 -2.75 C 0.84375 -2.75 0.90625 -2.703125 0.90625 -2.359375 L 0.90625 -0.546875 C 0.90625 -0.25 0.828125 -0.25 0.375 -0.25 L 0.375 0 C 0.390625 0 0.875 -0.03125 1.171875 -0.03125 C 1.421875 -0.03125 1.90625 0 1.96875 0 L 1.96875 -0.25 C 1.515625 -0.25 1.453125 -0.25 1.453125 -0.546875 L 1.453125 -1.8125 C 1.453125 -2.53125 2.03125 -2.875 2.484375 -2.875 C 2.96875 -2.875 3.03125 -2.5 3.03125 -2.140625 L 3.03125 -0.546875 C 3.03125 -0.25 2.96875 -0.25 2.515625 -0.25 L 2.515625 0 C 2.53125 0 3.015625 -0.03125 3.3125 -0.03125 C 3.5625 -0.03125 4.046875 0 4.109375 0 L 4.109375 -0.25 C 3.65625 -0.25 3.59375 -0.25 3.59375 -0.546875 L 3.59375 -1.8125 C 3.59375 -2.53125 4.171875 -2.875 4.625 -2.875 C 5.109375 -2.875 5.171875 -2.5 5.171875 -2.140625 L 5.171875 -0.546875 C 5.171875 -0.25 5.109375 -0.25 4.65625 -0.25 L 4.65625 0 C 4.671875 0 5.15625 -0.03125 5.453125 -0.03125 C 5.703125 -0.03125 6.1875 0 6.25 0 L 6.25 -0.25 C 5.796875 -0.25 5.734375 -0.25 5.734375 -0.546875 Z M 5.734375 -2.109375 "/>
</symbol>
<symbol overflow="visible" id="glyph3-1">
<path style="stroke:none;" d="M 3.6875 -1.484375 C 3.6875 -2.359375 2.9375 -3.109375 1.984375 -3.109375 C 1.015625 -3.109375 0.265625 -2.359375 0.265625 -1.484375 C 0.265625 -0.625 1.03125 0.0625 1.984375 0.0625 C 2.921875 0.0625 3.6875 -0.625 3.6875 -1.484375 Z M 1.984375 -0.15625 C 1.71875 -0.15625 1.34375 -0.234375 1.109375 -0.578125 C 0.921875 -0.859375 0.90625 -1.21875 0.90625 -1.546875 C 0.90625 -1.84375 0.90625 -2.265625 1.15625 -2.5625 C 1.328125 -2.765625 1.625 -2.90625 1.984375 -2.90625 C 2.390625 -2.90625 2.6875 -2.71875 2.84375 -2.5 C 3.03125 -2.234375 3.046875 -1.875 3.046875 -1.546875 C 3.046875 -1.21875 3.03125 -0.84375 2.828125 -0.5625 C 2.640625 -0.296875 2.328125 -0.15625 1.984375 -0.15625 Z M 1.984375 -0.15625 "/>
</symbol>
<symbol overflow="visible" id="glyph3-2">
<path style="stroke:none;" d="M 3.59375 -2.109375 C 3.59375 -2.71875 3.296875 -3.078125 2.546875 -3.078125 C 1.96875 -3.078125 1.609375 -2.765625 1.40625 -2.390625 L 1.40625 -3.078125 L 0.375 -3 L 0.375 -2.75 C 0.84375 -2.75 0.90625 -2.703125 0.90625 -2.359375 L 0.90625 -0.546875 C 0.90625 -0.25 0.828125 -0.25 0.375 -0.25 L 0.375 0 C 0.390625 0 0.875 -0.03125 1.171875 -0.03125 C 1.421875 -0.03125 1.90625 0 1.96875 0 L 1.96875 -0.25 C 1.515625 -0.25 1.453125 -0.25 1.453125 -0.546875 L 1.453125 -1.8125 C 1.453125 -2.53125 2.03125 -2.875 2.484375 -2.875 C 2.96875 -2.875 3.03125 -2.5 3.03125 -2.140625 L 3.03125 -0.546875 C 3.03125 -0.25 2.96875 -0.25 2.515625 -0.25 L 2.515625 0 C 2.53125 0 3.015625 -0.03125 3.3125 -0.03125 C 3.5625 -0.03125 4.046875 0 4.109375 0 L 4.109375 -0.25 C 3.65625 -0.25 3.59375 -0.25 3.59375 -0.546875 Z M 3.59375 -2.109375 "/>
</symbol>
<symbol overflow="visible" id="glyph3-3">
<path style="stroke:none;" d="M 1.46875 -4.296875 C 1.46875 -4.5 1.296875 -4.703125 1.0625 -4.703125 C 0.859375 -4.703125 0.671875 -4.53125 0.671875 -4.296875 C 0.671875 -4.046875 0.875 -3.890625 1.0625 -3.890625 C 1.296875 -3.890625 1.46875 -4.0625 1.46875 -4.296875 Z M 0.40625 -3 L 0.40625 -2.75 C 0.84375 -2.75 0.90625 -2.703125 0.90625 -2.359375 L 0.90625 -0.546875 C 0.90625 -0.25 0.84375 -0.25 0.390625 -0.25 L 0.390625 0 C 0.40625 0 0.890625 -0.03125 1.171875 -0.03125 C 1.421875 -0.03125 1.671875 -0.015625 1.90625 0 L 1.90625 -0.25 C 1.5 -0.25 1.4375 -0.25 1.4375 -0.546875 L 1.4375 -3.078125 Z M 0.40625 -3 "/>
</symbol>
<symbol overflow="visible" id="glyph3-4">
<path style="stroke:none;" d="M 1.40625 -2.75 L 2.484375 -2.75 L 2.484375 -3 L 1.40625 -3 L 1.40625 -4.28125 L 1.15625 -4.28125 C 1.15625 -3.65625 0.875 -2.96875 0.203125 -2.953125 L 0.203125 -2.75 L 0.84375 -2.75 L 0.84375 -0.875 C 0.84375 -0.09375 1.4375 0.0625 1.828125 0.0625 C 2.296875 0.0625 2.609375 -0.328125 2.609375 -0.875 L 2.609375 -1.265625 L 2.375 -1.265625 L 2.375 -0.890625 C 2.375 -0.40625 2.15625 -0.15625 1.875 -0.15625 C 1.40625 -0.15625 1.40625 -0.734375 1.40625 -0.859375 Z M 1.40625 -2.75 "/>
</symbol>
<symbol overflow="visible" id="glyph3-5">
<path style="stroke:none;" d="M 1.390625 -1.59375 C 1.390625 -2.171875 1.65625 -2.875 2.328125 -2.875 C 2.265625 -2.828125 2.203125 -2.734375 2.203125 -2.625 C 2.203125 -2.390625 2.390625 -2.3125 2.515625 -2.3125 C 2.6875 -2.3125 2.84375 -2.421875 2.84375 -2.625 C 2.84375 -2.859375 2.609375 -3.078125 2.28125 -3.078125 C 1.9375 -3.078125 1.546875 -2.859375 1.34375 -2.328125 L 1.34375 -3.078125 L 0.34375 -3 L 0.34375 -2.75 C 0.8125 -2.75 0.859375 -2.703125 0.859375 -2.359375 L 0.859375 -0.546875 C 0.859375 -0.25 0.796875 -0.25 0.34375 -0.25 L 0.34375 0 C 0.375 0 0.84375 -0.03125 1.140625 -0.03125 C 1.4375 -0.03125 1.734375 -0.015625 2.046875 0 L 2.046875 -0.25 L 1.90625 -0.25 C 1.390625 -0.25 1.390625 -0.328125 1.390625 -0.5625 Z M 1.390625 -1.59375 "/>
</symbol>
<symbol overflow="visible" id="glyph3-6">
<path style="stroke:none;" d="M 3.59375 -2.109375 C 3.59375 -2.71875 3.296875 -3.078125 2.546875 -3.078125 C 1.921875 -3.078125 1.578125 -2.703125 1.421875 -2.4375 L 1.421875 -4.84375 L 0.375 -4.765625 L 0.375 -4.515625 C 0.84375 -4.515625 0.90625 -4.453125 0.90625 -4.125 L 0.90625 -0.546875 C 0.90625 -0.25 0.828125 -0.25 0.375 -0.25 L 0.375 0 C 0.390625 0 0.875 -0.03125 1.171875 -0.03125 C 1.421875 -0.03125 1.90625 0 1.96875 0 L 1.96875 -0.25 C 1.515625 -0.25 1.453125 -0.25 1.453125 -0.546875 L 1.453125 -1.8125 C 1.453125 -2.53125 2.03125 -2.875 2.484375 -2.875 C 2.96875 -2.875 3.03125 -2.5 3.03125 -2.140625 L 3.03125 -0.546875 C 3.03125 -0.25 2.96875 -0.25 2.515625 -0.25 L 2.515625 0 C 2.53125 0 3.015625 -0.03125 3.3125 -0.03125 C 3.5625 -0.03125 4.046875 0 4.109375 0 L 4.109375 -0.25 C 3.65625 -0.25 3.59375 -0.25 3.59375 -0.546875 Z M 3.59375 -2.109375 "/>
</symbol>
<symbol overflow="visible" id="glyph3-7">
<path style="stroke:none;" d="M 2.703125 -2.78125 C 2.578125 -2.71875 2.515625 -2.609375 2.515625 -2.46875 C 2.515625 -2.28125 2.640625 -2.140625 2.84375 -2.140625 C 3.03125 -2.140625 3.171875 -2.265625 3.171875 -2.484375 C 3.171875 -3.109375 2.203125 -3.109375 2.015625 -3.109375 C 0.96875 -3.109375 0.328125 -2.3125 0.328125 -1.5 C 0.328125 -0.625 1.0625 0.0625 1.984375 0.0625 C 3.015625 0.0625 3.265625 -0.75 3.265625 -0.84375 C 3.265625 -0.921875 3.171875 -0.921875 3.140625 -0.921875 C 3.046875 -0.921875 3.046875 -0.90625 3.015625 -0.796875 C 2.859375 -0.375 2.484375 -0.15625 2.0625 -0.15625 C 1.578125 -0.15625 0.953125 -0.515625 0.953125 -1.515625 C 0.953125 -2.390625 1.390625 -2.890625 2.03125 -2.890625 C 2.125 -2.890625 2.453125 -2.890625 2.703125 -2.78125 Z M 2.703125 -2.78125 "/>
</symbol>
<symbol overflow="visible" id="glyph3-8">
<path style="stroke:none;" d="M 3.0625 -1.59375 C 3.21875 -1.59375 3.265625 -1.59375 3.265625 -1.734375 C 3.265625 -2.359375 2.921875 -3.109375 1.875 -3.109375 C 0.96875 -3.109375 0.265625 -2.390625 0.265625 -1.53125 C 0.265625 -0.640625 1.046875 0.0625 1.96875 0.0625 C 2.90625 0.0625 3.265625 -0.6875 3.265625 -0.84375 C 3.265625 -0.859375 3.25 -0.9375 3.140625 -0.9375 C 3.046875 -0.9375 3.03125 -0.890625 3.015625 -0.828125 C 2.796875 -0.265625 2.265625 -0.15625 2.015625 -0.15625 C 1.6875 -0.15625 1.375 -0.296875 1.171875 -0.5625 C 0.90625 -0.890625 0.90625 -1.3125 0.90625 -1.59375 Z M 0.90625 -1.765625 C 0.984375 -2.75 1.609375 -2.90625 1.875 -2.90625 C 2.734375 -2.90625 2.765625 -1.9375 2.78125 -1.765625 Z M 0.90625 -1.765625 "/>
</symbol>
<symbol overflow="visible" id="glyph3-9">
<path style="stroke:none;" d="M 1.9375 1.09375 C 1.484375 1.09375 1.421875 1.09375 1.421875 0.796875 L 1.421875 -0.328125 C 1.453125 -0.296875 1.78125 0.0625 2.359375 0.0625 C 3.28125 0.0625 4.0625 -0.625 4.0625 -1.5 C 4.0625 -2.359375 3.359375 -3.078125 2.46875 -3.078125 C 2.078125 -3.078125 1.671875 -2.921875 1.390625 -2.640625 L 1.390625 -3.078125 L 0.34375 -3 L 0.34375 -2.75 C 0.828125 -2.75 0.859375 -2.703125 0.859375 -2.421875 L 0.859375 0.796875 C 0.859375 1.09375 0.796875 1.09375 0.34375 1.09375 L 0.34375 1.359375 C 0.359375 1.359375 0.84375 1.328125 1.140625 1.328125 C 1.390625 1.328125 1.875 1.34375 1.9375 1.359375 Z M 1.421875 -2.328125 C 1.625 -2.671875 2.03125 -2.84375 2.390625 -2.84375 C 2.984375 -2.84375 3.4375 -2.234375 3.4375 -1.5 C 3.4375 -0.703125 2.90625 -0.125 2.328125 -0.125 C 1.703125 -0.125 1.4375 -0.65625 1.421875 -0.703125 Z M 1.421875 -2.328125 "/>
</symbol>
<symbol overflow="visible" id="glyph3-10">
<path style="stroke:none;" d="M 3.109375 -1.875 C 3.109375 -2.234375 3.109375 -2.5 2.78125 -2.765625 C 2.5 -3 2.171875 -3.109375 1.75 -3.109375 C 1.09375 -3.109375 0.625 -2.859375 0.625 -2.4375 C 0.625 -2.203125 0.78125 -2.09375 0.96875 -2.09375 C 1.15625 -2.09375 1.296875 -2.234375 1.296875 -2.421875 C 1.296875 -2.53125 1.234375 -2.6875 1.046875 -2.734375 C 1.296875 -2.90625 1.703125 -2.90625 1.734375 -2.90625 C 2.125 -2.90625 2.5625 -2.65625 2.5625 -2.0625 L 2.5625 -1.859375 C 2.171875 -1.84375 1.71875 -1.8125 1.203125 -1.625 C 0.578125 -1.40625 0.390625 -1.015625 0.390625 -0.703125 C 0.390625 -0.109375 1.109375 0.0625 1.609375 0.0625 C 2.15625 0.0625 2.484375 -0.25 2.640625 -0.515625 C 2.65625 -0.234375 2.84375 0.03125 3.171875 0.03125 C 3.1875 0.03125 3.859375 0.03125 3.859375 -0.625 L 3.859375 -1.015625 L 3.625 -1.015625 L 3.625 -0.640625 C 3.625 -0.5625 3.625 -0.234375 3.359375 -0.234375 C 3.109375 -0.234375 3.109375 -0.5625 3.109375 -0.640625 Z M 2.5625 -0.984375 C 2.5625 -0.3125 1.96875 -0.125 1.65625 -0.125 C 1.296875 -0.125 0.96875 -0.359375 0.96875 -0.703125 C 0.96875 -1.09375 1.296875 -1.625 2.5625 -1.671875 Z M 2.5625 -0.984375 "/>
</symbol>
<symbol overflow="visible" id="glyph3-11">
<path style="stroke:none;" d="M 1.4375 -4.84375 L 0.390625 -4.765625 L 0.390625 -4.515625 C 0.859375 -4.515625 0.90625 -4.453125 0.90625 -4.125 L 0.90625 -0.546875 C 0.90625 -0.25 0.84375 -0.25 0.390625 -0.25 L 0.390625 0 C 0.40625 0 0.890625 -0.03125 1.171875 -0.03125 C 1.4375 -0.03125 1.6875 -0.015625 1.953125 0 L 1.953125 -0.25 C 1.5 -0.25 1.4375 -0.25 1.4375 -0.546875 Z M 1.4375 -4.84375 "/>
</symbol>
<symbol overflow="visible" id="glyph3-12">
<path style="stroke:none;" d="M 1.390625 -4.84375 L 0.34375 -4.765625 L 0.34375 -4.515625 C 0.8125 -4.515625 0.859375 -4.453125 0.859375 -4.109375 L 0.859375 0 L 1.09375 0 L 1.34375 -0.421875 C 1.609375 -0.078125 2 0.0625 2.359375 0.0625 C 3.28125 0.0625 4.0625 -0.625 4.0625 -1.5 C 4.0625 -2.359375 3.359375 -3.078125 2.4375 -3.078125 C 2.015625 -3.078125 1.640625 -2.90625 1.390625 -2.65625 Z M 1.421875 -2.328125 C 1.609375 -2.65625 1.984375 -2.875 2.40625 -2.875 C 2.796875 -2.875 3.078125 -2.65625 3.21875 -2.453125 C 3.359375 -2.25 3.4375 -1.96875 3.4375 -1.515625 C 3.4375 -1.359375 3.4375 -0.828125 3.15625 -0.5 C 2.875 -0.1875 2.53125 -0.125 2.328125 -0.125 C 1.765625 -0.125 1.484375 -0.5625 1.421875 -0.703125 Z M 1.421875 -2.328125 "/>
</symbol>
<symbol overflow="visible" id="glyph3-13">
<path style="stroke:none;" d="M 5.1875 -4.703125 L 0.484375 -4.703125 L 0.328125 -3.109375 L 0.578125 -3.109375 C 0.671875 -4.3125 0.875 -4.453125 1.9375 -4.453125 C 2.078125 -4.453125 2.28125 -4.453125 2.359375 -4.453125 C 2.515625 -4.421875 2.515625 -4.34375 2.515625 -4.1875 L 2.515625 -0.578125 C 2.515625 -0.34375 2.515625 -0.25 1.78125 -0.25 L 1.484375 -0.25 L 1.484375 0 C 1.828125 -0.03125 2.484375 -0.03125 2.84375 -0.03125 C 3.203125 -0.03125 3.84375 -0.03125 4.1875 0 L 4.1875 -0.25 L 3.890625 -0.25 C 3.171875 -0.25 3.171875 -0.34375 3.171875 -0.578125 L 3.171875 -4.1875 C 3.171875 -4.34375 3.171875 -4.421875 3.328125 -4.453125 C 3.390625 -4.453125 3.59375 -4.453125 3.734375 -4.453125 C 4.125 -4.453125 4.421875 -4.453125 4.671875 -4.328125 C 4.984375 -4.125 5.03125 -3.6875 5.03125 -3.65625 L 5.09375 -3.109375 L 5.34375 -3.109375 Z M 5.1875 -4.703125 "/>
</symbol>
<symbol overflow="visible" id="glyph3-14">
<path style="stroke:none;" d="M 2.25 -1.890625 C 3.109375 -2.546875 3.34375 -2.734375 3.8125 -2.75 L 3.8125 -3 C 3.671875 -2.984375 3.484375 -2.96875 3.34375 -2.96875 C 3.0625 -2.96875 2.78125 -2.984375 2.515625 -3 L 2.515625 -2.75 C 2.59375 -2.734375 2.640625 -2.6875 2.640625 -2.625 C 2.640625 -2.515625 2.5 -2.390625 2.421875 -2.328125 L 1.390625 -1.53125 L 1.390625 -4.84375 L 0.34375 -4.765625 L 0.34375 -4.515625 C 0.8125 -4.515625 0.859375 -4.453125 0.859375 -4.125 L 0.859375 -0.546875 C 0.859375 -0.25 0.796875 -0.25 0.34375 -0.25 L 0.34375 0 C 0.59375 -0.015625 0.859375 -0.03125 1.109375 -0.03125 C 1.375 -0.03125 1.625 -0.015625 1.890625 0 L 1.890625 -0.25 C 1.4375 -0.25 1.359375 -0.25 1.359375 -0.546875 L 1.359375 -1.21875 L 1.875 -1.609375 L 2.625 -0.65625 C 2.703125 -0.578125 2.78125 -0.46875 2.78125 -0.375 C 2.78125 -0.265625 2.65625 -0.25 2.59375 -0.25 L 2.59375 0 C 2.6875 0 3.171875 -0.03125 3.375 -0.03125 C 3.578125 -0.03125 3.78125 -0.015625 3.984375 0 L 3.984375 -0.25 C 3.734375 -0.25 3.578125 -0.265625 3.375 -0.515625 Z M 2.25 -1.890625 "/>
</symbol>
<symbol overflow="visible" id="glyph3-15">
<path style="stroke:none;" d="M 2.640625 -2.921875 C 2.640625 -3.046875 2.640625 -3.109375 2.546875 -3.109375 C 2.515625 -3.109375 2.5 -3.109375 2.40625 -3.03125 C 2.390625 -3.015625 2.328125 -2.953125 2.28125 -2.921875 C 2.0625 -3.0625 1.8125 -3.109375 1.546875 -3.109375 C 0.546875 -3.109375 0.3125 -2.578125 0.3125 -2.234375 C 0.3125 -2.015625 0.40625 -1.828125 0.578125 -1.6875 C 0.84375 -1.46875 1.109375 -1.421875 1.546875 -1.34375 C 1.890625 -1.28125 2.453125 -1.1875 2.453125 -0.71875 C 2.453125 -0.453125 2.265625 -0.125 1.59375 -0.125 C 0.921875 -0.125 0.6875 -0.5625 0.5625 -1.03125 C 0.53125 -1.125 0.53125 -1.15625 0.4375 -1.15625 C 0.3125 -1.15625 0.3125 -1.109375 0.3125 -0.96875 L 0.3125 -0.109375 C 0.3125 0 0.3125 0.0625 0.40625 0.0625 C 0.46875 0.0625 0.609375 -0.078125 0.75 -0.234375 C 1.046875 0.0625 1.421875 0.0625 1.59375 0.0625 C 2.5 0.0625 2.84375 -0.421875 2.84375 -0.90625 C 2.84375 -1.171875 2.71875 -1.390625 2.53125 -1.546875 C 2.265625 -1.796875 1.953125 -1.859375 1.703125 -1.890625 C 1.15625 -2 0.703125 -2.078125 0.703125 -2.453125 C 0.703125 -2.671875 0.890625 -2.9375 1.546875 -2.9375 C 2.359375 -2.9375 2.390625 -2.375 2.40625 -2.171875 C 2.40625 -2.09375 2.5 -2.09375 2.515625 -2.09375 C 2.640625 -2.09375 2.640625 -2.140625 2.640625 -2.28125 Z M 2.640625 -2.921875 "/>
</symbol>
<symbol overflow="visible" id="glyph3-16">
<path style="stroke:none;" d="M 2.515625 -3 L 2.515625 -2.75 C 2.984375 -2.75 3.03125 -2.703125 3.03125 -2.359375 L 3.03125 -1.15625 C 3.03125 -0.546875 2.640625 -0.125 2.109375 -0.125 C 1.484375 -0.125 1.453125 -0.421875 1.453125 -0.78125 L 1.453125 -3.078125 L 0.375 -3 L 0.375 -2.75 C 0.90625 -2.75 0.90625 -2.71875 0.90625 -2.109375 L 0.90625 -1.0625 C 0.90625 -0.578125 0.90625 0.0625 2.0625 0.0625 C 2.21875 0.0625 2.71875 0.0625 3.0625 -0.515625 L 3.0625 0.0625 L 4.109375 0 L 4.109375 -0.25 C 3.640625 -0.25 3.59375 -0.296875 3.59375 -0.640625 L 3.59375 -3.078125 Z M 2.515625 -3 "/>
</symbol>
<symbol overflow="visible" id="glyph3-17">
<path style="stroke:none;" d="M 2.484375 -4.765625 L 2.484375 -4.515625 C 2.953125 -4.515625 3 -4.453125 3 -4.125 L 3 -2.671875 C 2.75 -2.921875 2.40625 -3.078125 2.03125 -3.078125 C 1.09375 -3.078125 0.328125 -2.375 0.328125 -1.5 C 0.328125 -0.625 1.0625 0.0625 1.9375 0.0625 C 2.515625 0.0625 2.859375 -0.234375 2.96875 -0.359375 L 2.96875 0.0625 L 4.046875 0 L 4.046875 -0.25 C 3.578125 -0.25 3.53125 -0.296875 3.53125 -0.640625 L 3.53125 -4.84375 Z M 2.96875 -0.734375 C 2.796875 -0.40625 2.4375 -0.125 1.984375 -0.125 C 1.59375 -0.125 1.3125 -0.359375 1.171875 -0.5625 C 1.03125 -0.765625 0.953125 -1.046875 0.953125 -1.484375 C 0.953125 -1.65625 0.953125 -2.171875 1.234375 -2.5 C 1.515625 -2.8125 1.859375 -2.875 2.0625 -2.875 C 2.390625 -2.875 2.703125 -2.71875 2.890625 -2.46875 C 2.96875 -2.359375 2.96875 -2.359375 2.96875 -2.21875 Z M 2.96875 -0.734375 "/>
</symbol>
<symbol overflow="visible" id="glyph3-18">
<path style="stroke:none;" d="M 1 -1.234375 C 1.109375 -1.171875 1.359375 -1.03125 1.765625 -1.03125 C 2.484375 -1.03125 3 -1.5 3 -2.046875 C 3 -2.328125 2.875 -2.53125 2.703125 -2.71875 C 3.03125 -2.9375 3.296875 -2.953125 3.421875 -2.953125 C 3.390625 -2.921875 3.359375 -2.890625 3.359375 -2.78125 C 3.359375 -2.640625 3.453125 -2.5625 3.578125 -2.5625 C 3.671875 -2.5625 3.796875 -2.625 3.796875 -2.78125 C 3.796875 -2.953125 3.671875 -3.140625 3.390625 -3.140625 C 3.28125 -3.140625 2.90625 -3.125 2.578125 -2.828125 C 2.375 -2.96875 2.078125 -3.078125 1.765625 -3.078125 C 1.046875 -3.078125 0.53125 -2.59375 0.53125 -2.046875 C 0.53125 -1.78125 0.671875 -1.53125 0.859375 -1.34375 C 0.8125 -1.28125 0.65625 -1.046875 0.65625 -0.78125 C 0.65625 -0.6875 0.671875 -0.359375 0.953125 -0.15625 C 0.640625 -0.0625 0.265625 0.171875 0.265625 0.53125 C 0.265625 1.046875 1.03125 1.421875 1.984375 1.421875 C 2.859375 1.421875 3.6875 1.078125 3.6875 0.515625 C 3.6875 0.3125 3.609375 -0.0625 3.21875 -0.265625 C 2.8125 -0.484375 2.390625 -0.484375 1.71875 -0.484375 C 1.5625 -0.484375 1.3125 -0.484375 1.265625 -0.5 C 1.03125 -0.546875 0.90625 -0.75 0.90625 -0.953125 C 0.90625 -1.125 0.96875 -1.1875 1 -1.234375 Z M 1.765625 -1.234375 C 1.09375 -1.234375 1.09375 -1.90625 1.09375 -2.046875 C 1.09375 -2.15625 1.09375 -2.4375 1.21875 -2.625 C 1.328125 -2.734375 1.515625 -2.859375 1.765625 -2.859375 C 2.453125 -2.859375 2.453125 -2.1875 2.453125 -2.046875 C 2.453125 -1.9375 2.453125 -1.65625 2.3125 -1.484375 C 2.203125 -1.359375 2.015625 -1.234375 1.765625 -1.234375 Z M 1.765625 -0.015625 C 2.390625 -0.015625 3.265625 -0.015625 3.265625 0.53125 C 3.265625 0.90625 2.703125 1.21875 1.984375 1.21875 C 1.25 1.21875 0.703125 0.890625 0.703125 0.53125 C 0.703125 0.28125 0.921875 -0.015625 1.359375 -0.015625 Z M 1.765625 -0.015625 "/>
</symbol>
<symbol overflow="visible" id="glyph3-19">
<path style="stroke:none;" d="M 1.53125 -0.390625 C 1.53125 -0.640625 1.328125 -0.796875 1.125 -0.796875 C 0.890625 -0.796875 0.71875 -0.609375 0.71875 -0.40625 C 0.71875 -0.15625 0.921875 0 1.125 0 C 1.359375 0 1.53125 -0.1875 1.53125 -0.390625 Z M 1.53125 -0.390625 "/>
</symbol>
</g>
</defs>
<g id="surface1">
<path style=" stroke:none;fill-rule:nonzero;fill:rgb(75%,75%,75%);fill-opacity:1;" d="M 90.277344 3.53125 L 90.277344 9.203125 L 203.667969 9.203125 L 203.667969 3.53125 Z M 90.277344 3.53125 "/>
<g style="fill:rgb(34.999084%,34.999084%,34.999084%);fill-opacity:1;">
  <use xlink:href="#glyph0-0" x="133.125" y="7.678"/>
  <use xlink:href="#glyph0-1" x="135.82337" y="7.678"/>
  <use xlink:href="#glyph0-2" x="139.213643" y="7.678"/>
</g>
<g style="fill:rgb(34.999084%,34.999084%,34.999084%);fill-opacity:1;">
  <use xlink:href="#glyph0-2" x="145.300792" y="7.678"/>
  <use xlink:href="#glyph0-3" x="149.036767" y="7.678"/>
  <use xlink:href="#glyph0-4" x="152.427039" y="7.678"/>
  <use xlink:href="#glyph0-5" x="156.163014" y="7.678"/>
  <use xlink:href="#glyph0-6" x="159.207087" y="7.678"/>
</g>
<path style=" stroke:none;fill-rule:nonzero;fill:rgb(84.999084%,84.999084%,84.999084%);fill-opacity:1;" d="M 105.871094 139.597656 L 105.871094 131.09375 L 190.910156 131.09375 L 190.910156 139.597656 Z M 105.871094 139.597656 "/>
<g style="fill:rgb(34.999084%,34.999084%,34.999084%);fill-opacity:1;">
  <use xlink:href="#glyph0-7" x="129.422" y="135.108"/>
  <use xlink:href="#glyph0-5" x="134.887482" y="135.108"/>
  <use xlink:href="#glyph0-8" x="137.931555" y="135.108"/>
  <use xlink:href="#glyph0-8" x="140.664296" y="135.108"/>
  <use xlink:href="#glyph0-3" x="143.397037" y="135.108"/>
  <use xlink:href="#glyph0-9" x="146.78731" y="135.108"/>
  <use xlink:href="#glyph0-5" x="150.177583" y="135.108"/>
</g>
<g style="fill:rgb(34.999084%,34.999084%,34.999084%);fill-opacity:1;">
  <use xlink:href="#glyph0-0" x="155.572829" y="135.108"/>
  <use xlink:href="#glyph0-10" x="158.271199" y="135.108"/>
  <use xlink:href="#glyph0-3" x="160.969569" y="135.108"/>
</g>
<g style="fill:rgb(34.999084%,34.999084%,34.999084%);fill-opacity:1;">
  <use xlink:href="#glyph0-11" x="164.190478" y="135.108"/>
</g>
<path style="fill:none;stroke-width:1;stroke-linecap:butt;stroke-linejoin:miter;stroke:rgb(0%,0%,0%);stroke-opacity:1;stroke-miterlimit:10;" d="M 86.679 65.097 L 199.679 65.097 L 199.679 136.097 L 86.679 136.097 Z M 86.679 65.097 " transform="matrix(1,0,0,-1,3.821,139.597)"/>
<g style="fill:rgb(0%,0%,0%);fill-opacity:1;">
  <use xlink:href="#glyph1-0" x="132.46" y="40.665"/>
  <use xlink:href="#glyph1-1" x="137.16475" y="40.665"/>
  <use xlink:href="#glyph1-2" x="140.465168" y="40.665"/>
  <use xlink:href="#glyph1-3" x="142.817145" y="40.665"/>
  <use xlink:href="#glyph1-4" x="149.873871" y="40.665"/>
  <use xlink:href="#glyph1-1" x="154.108386" y="40.665"/>
  <use xlink:href="#glyph1-5" x="157.408804" y="40.665"/>
</g>
<path style="fill:none;stroke-width:1;stroke-linecap:butt;stroke-linejoin:miter;stroke:rgb(0%,0%,0%);stroke-opacity:1;stroke-miterlimit:10;" d="M 102.679 0.097 L 187.679 0.097 L 187.679 64.097 L 102.679 64.097 Z M 102.679 0.097 " transform="matrix(1,0,0,-1,3.821,139.597)"/>
<g style="fill:rgb(0%,0%,0%);fill-opacity:1;">
  <use xlink:href="#glyph1-6" x="135.061" y="110.275"/>
</g>
<g style="fill:rgb(0%,0%,0%);fill-opacity:1;">
  <use xlink:href="#glyph1-7" x="139.996883" y="110.275"/>
  <use xlink:href="#glyph1-8" x="144.231397" y="110.275"/>
  <use xlink:href="#glyph1-8" x="147.524642" y="110.275"/>
  <use xlink:href="#glyph1-7" x="150.817888" y="110.275"/>
  <use xlink:href="#glyph1-3" x="155.052402" y="110.275"/>
</g>
<path style="fill:none;stroke-width:1;stroke-linecap:butt;stroke-linejoin:miter;stroke:rgb(0%,0%,0%);stroke-opacity:1;stroke-miterlimit:10;" d="M -0.321 65.097 L -0.321 129.097 L 84.679 129.097 L 84.679 65.097 Z M -0.321 65.097 " transform="matrix(1,0,0,-1,3.821,139.597)"/>
<path style="fill:none;stroke-width:1;stroke-linecap:butt;stroke-linejoin:miter;stroke:rgb(100%,0%,0%);stroke-opacity:1;stroke-miterlimit:10;" d="M 86.679 136.097 L 86.679 130.097 " transform="matrix(1,0,0,-1,3.821,139.597)"/>
<path style="fill:none;stroke-width:1;stroke-linecap:butt;stroke-linejoin:miter;stroke:rgb(100%,0%,0%);stroke-opacity:1;stroke-miterlimit:10;" d="M 199.679 136.097 L 199.679 130.097 " transform="matrix(1,0,0,-1,3.821,139.597)"/>
<path style="fill:none;stroke-width:1;stroke-linecap:butt;stroke-linejoin:miter;stroke:rgb(100%,0%,0%);stroke-opacity:1;stroke-miterlimit:10;" d="M 186.679 0.097 L 186.679 8.097 " transform="matrix(1,0,0,-1,3.821,139.597)"/>
<path style=" stroke:none;fill-rule:nonzero;fill:rgb(0%,0%,100%);fill-opacity:1;" d="M 91.273438 3.53125 C 91.273438 2.980469 90.828125 2.535156 90.277344 2.535156 C 89.730469 2.535156 89.28125 2.980469 89.28125 3.53125 C 89.28125 4.082031 89.730469 4.527344 90.277344 4.527344 C 90.828125 4.527344 91.273438 4.082031 91.273438 3.53125 Z M 91.273438 3.53125 "/>
<path style=" stroke:none;fill-rule:nonzero;fill:rgb(0%,0%,100%);fill-opacity:1;" d="M 4.816406 10.617188 C 4.816406 10.070312 4.371094 9.621094 3.820312 9.621094 C 3.269531 9.621094 2.824219 10.070312 2.824219 10.617188 C 2.824219 11.167969 3.269531 11.613281 3.820312 11.613281 C 4.371094 11.613281 4.816406 11.167969 4.816406 10.617188 Z M 4.816406 10.617188 "/>
<g style="fill:rgb(0%,0%,0%);fill-opacity:1;">
  <use xlink:href="#glyph2-0" x="7.34" y="147.882"/>
  <use xlink:href="#glyph2-1" x="12.105198" y="147.882"/>
</g>
<g style="fill:rgb(0%,0%,0%);fill-opacity:1;">
  <use xlink:href="#glyph2-2" x="15.914984" y="147.882"/>
  <use xlink:href="#glyph2-3" x="20.192016" y="147.882"/>
  <use xlink:href="#glyph2-4" x="24.624563" y="147.882"/>
  <use xlink:href="#glyph2-5" x="28.901595" y="147.882"/>
</g>
<g style="fill:rgb(0%,0%,0%);fill-opacity:1;">
  <use xlink:href="#glyph2-6" x="36.350311" y="147.882"/>
  <use xlink:href="#glyph2-3" x="41.557647" y="147.882"/>
  <use xlink:href="#glyph2-7" x="45.990194" y="147.882"/>
  <use xlink:href="#glyph2-8" x="50.267226" y="147.882"/>
  <use xlink:href="#glyph2-5" x="52.374708" y="147.882"/>
  <use xlink:href="#glyph2-3" x="56.496921" y="147.882"/>
  <use xlink:href="#glyph2-9" x="60.929469" y="147.882"/>
</g>
<g style="fill:rgb(0%,0%,0%);fill-opacity:1;">
  <use xlink:href="#glyph2-1" x="68.44862" y="147.882"/>
  <use xlink:href="#glyph2-7" x="72.725651" y="147.882"/>
  <use xlink:href="#glyph2-10" x="77.002683" y="147.882"/>
</g>
<g style="fill:rgb(0%,0%,0%);fill-opacity:1;">
  <use xlink:href="#glyph2-11" x="84.676652" y="147.882"/>
  <use xlink:href="#glyph2-12" x="90.158757" y="147.882"/>
  <use xlink:href="#glyph2-9" x="94.435788" y="147.882"/>
</g>
<g style="fill:rgb(0%,0%,0%);fill-opacity:1;">
  <use xlink:href="#glyph2-3" x="98.481987" y="147.882"/>
  <use xlink:href="#glyph2-6" x="102.914534" y="147.882"/>
  <use xlink:href="#glyph2-13" x="108.121871" y="147.882"/>
</g>
<path style="fill:none;stroke-width:1;stroke-linecap:butt;stroke-linejoin:miter;stroke:rgb(0%,0%,0%);stroke-opacity:1;stroke-miterlimit:10;" d="M -0.04 0.153 L -0.04 4.153 L 5.96 4.153 L 5.96 0.153 Z M -0.04 0.153 " transform="matrix(1,0,0,-1,7.54,155.653)"/>
<g style="fill:rgb(0%,0%,0%);fill-opacity:1;">
  <use xlink:href="#glyph3-0" x="17.065" y="155.852"/>
  <use xlink:href="#glyph3-1" x="23.609911" y="155.852"/>
  <use xlink:href="#glyph3-2" x="27.58149" y="155.852"/>
  <use xlink:href="#glyph3-3" x="31.981958" y="155.852"/>
  <use xlink:href="#glyph3-4" x="34.237285" y="155.852"/>
  <use xlink:href="#glyph3-1" x="37.350389" y="155.852"/>
  <use xlink:href="#glyph3-5" x="41.321969" y="155.852"/>
</g>
<path style=" stroke:none;fill-rule:nonzero;fill:rgb(0%,0%,100%);fill-opacity:1;" d="M 9.332031 162.824219 C 9.332031 162.273438 8.886719 161.828125 8.335938 161.828125 C 7.785156 161.828125 7.339844 162.273438 7.339844 162.824219 C 7.339844 163.375 7.785156 163.820312 8.335938 163.820312 C 8.886719 163.820312 9.332031 163.375 9.332031 162.824219 Z M 9.332031 162.824219 "/>
<g style="fill:rgb(0%,0%,0%);fill-opacity:1;">
  <use xlink:href="#glyph3-6" x="12.653" y="163.822"/>
  <use xlink:href="#glyph3-1" x="17.053468" y="163.822"/>
  <use xlink:href="#glyph3-4" x="21.025047" y="163.822"/>
</g>
<g style="fill:rgb(0%,0%,0%);fill-opacity:1;">
  <use xlink:href="#glyph3-7" x="27.45768" y="163.822"/>
  <use xlink:href="#glyph3-1" x="30.999673" y="163.822"/>
  <use xlink:href="#glyph3-5" x="34.971252" y="163.822"/>
  <use xlink:href="#glyph3-2" x="38.084356" y="163.822"/>
  <use xlink:href="#glyph3-8" x="42.484824" y="163.822"/>
  <use xlink:href="#glyph3-5" x="46.026817" y="163.822"/>
</g>
<path style="fill:none;stroke-width:1;stroke-linecap:butt;stroke-linejoin:miter;stroke:rgb(100%,0%,0%);stroke-opacity:1;stroke-miterlimit:10;" d="M -0.239 -0.106 L -0.239 2.894 " transform="matrix(1,0,0,-1,7.739,171.394)"/>
<g style="fill:rgb(0%,0%,0%);fill-opacity:1;">
  <use xlink:href="#glyph3-9" x="11.458" y="171.792"/>
  <use xlink:href="#glyph3-10" x="15.858468" y="171.792"/>
  <use xlink:href="#glyph3-2" x="19.830047" y="171.792"/>
  <use xlink:href="#glyph3-8" x="24.230515" y="171.792"/>
  <use xlink:href="#glyph3-11" x="27.772508" y="171.792"/>
</g>
<g style="fill:rgb(0%,0%,0%);fill-opacity:1;">
  <use xlink:href="#glyph3-12" x="33.347363" y="171.792"/>
  <use xlink:href="#glyph3-10" x="37.747831" y="171.792"/>
  <use xlink:href="#glyph3-5" x="41.71941" y="171.792"/>
  <use xlink:href="#glyph3-5" x="44.832515" y="171.792"/>
  <use xlink:href="#glyph3-3" x="47.945619" y="171.792"/>
  <use xlink:href="#glyph3-8" x="50.200946" y="171.792"/>
  <use xlink:href="#glyph3-5" x="53.742939" y="171.792"/>
</g>
<g style="fill:rgb(0%,0%,0%);fill-opacity:1;">
  <use xlink:href="#glyph3-13" x="7.34" y="179.762"/>
</g>
<g style="fill:rgb(0%,0%,0%);fill-opacity:1;">
  <use xlink:href="#glyph3-1" x="12.385544" y="179.762"/>
  <use xlink:href="#glyph3-9" x="16.357123" y="179.762"/>
</g>
<g style="fill:rgb(0%,0%,0%);fill-opacity:1;">
  <use xlink:href="#glyph3-9" x="24.07712" y="179.762"/>
  <use xlink:href="#glyph3-10" x="28.477588" y="179.762"/>
  <use xlink:href="#glyph3-2" x="32.449167" y="179.762"/>
  <use xlink:href="#glyph3-8" x="36.849635" y="179.762"/>
  <use xlink:href="#glyph3-11" x="40.391628" y="179.762"/>
</g>
<g style="fill:rgb(0%,0%,0%);fill-opacity:1;">
  <use xlink:href="#glyph3-0" x="45.966483" y="179.762"/>
  <use xlink:href="#glyph3-10" x="52.511395" y="179.762"/>
  <use xlink:href="#glyph3-14" x="56.482974" y="179.762"/>
</g>
<g style="fill:rgb(0%,0%,0%);fill-opacity:1;">
  <use xlink:href="#glyph3-8" x="60.452461" y="179.762"/>
  <use xlink:href="#glyph3-15" x="63.994454" y="179.762"/>
</g>
<g style="fill:rgb(0%,0%,0%);fill-opacity:1;">
  <use xlink:href="#glyph3-16" x="70.470325" y="179.762"/>
  <use xlink:href="#glyph3-9" x="74.870792" y="179.762"/>
</g>
<g style="fill:rgb(0%,0%,0%);fill-opacity:1;">
  <use xlink:href="#glyph3-4" x="82.590789" y="179.762"/>
  <use xlink:href="#glyph3-6" x="85.703893" y="179.762"/>
  <use xlink:href="#glyph3-8" x="90.104361" y="179.762"/>
</g>
<g style="fill:rgb(0%,0%,0%);fill-opacity:1;">
  <use xlink:href="#glyph3-15" x="96.972857" y="179.762"/>
</g>
<g style="fill:rgb(0%,0%,0%);fill-opacity:1;">
  <use xlink:href="#glyph3-4" x="100.122225" y="179.762"/>
</g>
<g style="fill:rgb(0%,0%,0%);fill-opacity:1;">
  <use xlink:href="#glyph3-5" x="103.242303" y="179.762"/>
  <use xlink:href="#glyph3-16" x="106.355407" y="179.762"/>
  <use xlink:href="#glyph3-4" x="110.755875" y="179.762"/>
  <use xlink:href="#glyph3-15" x="113.868979" y="179.762"/>
</g>
<path style=" stroke:none;fill-rule:nonzero;fill:rgb(75%,75%,75%);fill-opacity:1;" d="M 7.339844 191.71875 L 7.339844 187.214844 L 13.34375 187.214844 L 13.34375 191.71875 Z M 7.339844 191.71875 "/>
<g style="fill:rgb(0%,0%,0%);fill-opacity:1;">
  <use xlink:href="#glyph3-10" x="16.666" y="191.717"/>
  <use xlink:href="#glyph3-2" x="20.637579" y="191.717"/>
  <use xlink:href="#glyph3-17" x="25.038047" y="191.717"/>
</g>
<path style=" stroke:none;fill-rule:nonzero;fill:rgb(0%,0%,100%);fill-opacity:1;" d="M 34.75 190.722656 C 34.75 190.171875 34.304688 189.726562 33.753906 189.726562 C 33.203125 189.726562 32.757812 190.171875 32.757812 190.722656 C 32.757812 191.273438 33.203125 191.71875 33.753906 191.71875 C 34.304688 191.71875 34.75 191.273438 34.75 190.722656 Z M 34.75 190.722656 "/>
<g style="fill:rgb(0%,0%,0%);fill-opacity:1;">
  <use xlink:href="#glyph3-10" x="38.071" y="191.717"/>
  <use xlink:href="#glyph3-5" x="42.042579" y="191.717"/>
  <use xlink:href="#glyph3-8" x="45.155683" y="191.717"/>
</g>
<g style="fill:rgb(0%,0%,0%);fill-opacity:1;">
  <use xlink:href="#glyph3-4" x="52.017205" y="191.717"/>
  <use xlink:href="#glyph3-6" x="55.13031" y="191.717"/>
  <use xlink:href="#glyph3-8" x="59.530777" y="191.717"/>
</g>
<g style="fill:rgb(0%,0%,0%);fill-opacity:1;">
  <use xlink:href="#glyph3-15" x="66.392299" y="191.717"/>
  <use xlink:href="#glyph3-4" x="69.548641" y="191.717"/>
  <use xlink:href="#glyph3-10" x="72.661745" y="191.717"/>
  <use xlink:href="#glyph3-18" x="76.633324" y="191.717"/>
  <use xlink:href="#glyph3-8" x="80.604904" y="191.717"/>
</g>
<g style="fill:rgb(0%,0%,0%);fill-opacity:1;">
  <use xlink:href="#glyph3-3" x="87.466425" y="191.717"/>
</g>
<g style="fill:rgb(0%,0%,0%);fill-opacity:1;">
  <use xlink:href="#glyph3-2" x="89.728726" y="191.717"/>
</g>
<g style="fill:rgb(0%,0%,0%);fill-opacity:1;">
  <use xlink:href="#glyph3-9" x="94.12222" y="191.717"/>
  <use xlink:href="#glyph3-16" x="98.522688" y="191.717"/>
  <use xlink:href="#glyph3-4" x="102.923156" y="191.717"/>
</g>
<g style="fill:rgb(0%,0%,0%);fill-opacity:1;">
  <use xlink:href="#glyph3-5" x="109.362763" y="191.717"/>
  <use xlink:href="#glyph3-8" x="112.475867" y="191.717"/>
  <use xlink:href="#glyph3-18" x="116.01786" y="191.717"/>
  <use xlink:href="#glyph3-3" x="119.989439" y="191.717"/>
  <use xlink:href="#glyph3-1" x="122.244766" y="191.717"/>
  <use xlink:href="#glyph3-2" x="126.216345" y="191.717"/>
  <use xlink:href="#glyph3-19" x="130.616813" y="191.717"/>
</g>
</g>
</svg>
